…
2.  Dynamic Frame `moveplot2()`: Separate biplots are constructed for
    each time slice of the data. Both the sample points and variable
    axes evolve over time, resulting in a fully dynamic animation that
    reflects temporal changes in the underlying data structure.

To illustrate the animated biplots, we use a climate dataset included in
the package. This dataset, Africa_climate, contains climate measurements
from 10 African regions over time:

``` r
library(moveEZ)
data("Africa_climate")
tibble::tibble(Africa_climate)
#> # A tibble: 960 × 9
#>    Year  Month     Region AccPrec DailyEva  Temp SoilMois  SPI6  wind
#>    <fct> <fct>     <fct>    <dbl>    <dbl> <dbl>    <dbl> <dbl> <dbl>
#>  1 1950  January   ARP      0.177  0.0316   14.8    2.75  1.62   4.07
#>  2 1950  February  ARP      0.208 -0.0249   15.4    2.22  1.32   4.24
#>  3 1950  March     ARP      0.306  0.0122   20.9    2.08  0.987  4.04
#>  4 1950  April     ARP      0.196  0.00396  24.8    1.73  0.916  3.72
#>  5 1950  May       ARP      0.590 -0.0448   28.4    2.47  0.691  3.91
#>  6 1950  June      ARP      0.32  -0.00754  30.4    1.17  0.249  4.40
#>  7 1950  July      ARP      1.33   0.00184  30.8    2.00  0.673  4.93
#>  8 1950  August    ARP      1.82  -0.00944  30.5    2.67  0.937  4.45
#>  9 1950  September ARP      0.706 -0.0107   29.7    1.98  1.22   3.67
#> 10 1950  October   ARP      0.102 -0.0259   25.9    0.976 1.65   3.18
#> # ℹ 950 more rows
```
…
